…
To follow along with this code, you must start by importing the data and running the code in the [previous post](https://rgriff23.github.io/2018/05/28/olympic-history-2-data-wrangling-1.html). You'll need to load the `tidyverse` package too.

## Check variables for weird values

The dataframe we are dealing with has 15 variables. Let's take a peek:


```r
# Check data
data %>% print(width=Inf)
```

```
>  # A tibble: 271,116 x 15
>     ID    Name                     Sex   Age   Height Weight Team          
>     <chr> <chr>                    <fct> <fct>  <dbl>  <dbl> <fct>         
>   1 1     A Dijiang                M     24       180     80 China         
>   2 2     A Lamusi                 M     23       170     60 China         
>   3 3     Gunnar Nielsen Aaby      M     24        NA     NA Denmark       
>   4 4     Edgar Lindenau Aabye     M     34        NA     NA Denmark/Sweden
>   5 5     Christine Jacoba Aaftink F     21       185     82 Netherlands   
>   6 5     Christine Jacoba Aaftink F     21       185     82 Netherlands   
>   7 5     Christine Jacoba Aaftink F     25       185     82 Netherlands   
>   8 5     Christine Jacoba Aaftink F     25       185     82 Netherlands   
>   9 5     Christine Jacoba Aaftink F     27       185     82 Netherlands   
>  10 5     Christine Jacoba Aaftink F     27       185     82 Netherlands   
>     NOC   Games        Year Season City        Sport        
>     <fct> <chr>       <dbl> <chr>  <fct>       <fct>        
>   1 CHN   1992 Summer  1992 Summer Barcelona   Basketball   
>   2 CHN   2012 Summer  2012 Summer London      Judo         
>   3 DEN   1920 Summer  1920 Summer Antwerpen   Football     
>   4 DEN   1900 Summer  1900 Summer Paris       Tug-Of-War   
>   5 NED   1988 Winter  1988 Winter Calgary     Speed Skating
>   6 NED   1988 Winter  1988 Winter Calgary     Speed Skating
>   7 NED   1992 Winter  1992 Winter Albertville Speed Skating
>   8 NED   1992 Winter  1992 Winter Albertville Speed Skating
>   9 NED   1994 Winter  1994 Winter Lillehammer Speed Skating
>  10 NED   1994 Winter  1994 Winter Lillehammer Speed Skating
>     Event                   Medal
>     <fct>                   <fct>
>   1 Men's Basketball        ""   
>   2 Men's Extra-Lightweight ""   
>   3 Men's Football          ""   
>   4 Men's Tug-Of-War        Gold 
>   5 Women's 500 metres      ""   
>   6 Women's 1,000 metres    ""   
>   7 Women's 500 metres      ""   
>   8 Women's 1,000 metres    ""   
>   9 Women's 500 metres      ""   
>  10 Women's 1,000 metres    ""   
>  # ... with 271,106 more rows
```
…
